sbatch: error: Unable to open file bfile
sbatch: error: Unable to open file bfile
sbatch: error: Unable to open file bfile
sbatch: error: Unable to open file bfile
sbatch: error: Unable to open file bfile
sbatch: error: Unable to open file bfile
sbatch: error: Unable to open file bfile
sbatch: error: Unable to open file bfile
